[gd_resource type="Shader" format=3 uid="uid://dkq47aqxhmx1j"]

[resource]
code = "shader_type spatial;

uniform sampler2D noise; //todo: Name taken from tutorial. Replace with \"heightmap\"
uniform float height_scale = 0.5;
uniform int size = 8;

void vertex() {
	//Texture is between 0:1, while the vertex is -size/2 to size/2
	float height = texture(noise, VERTEX.xz/float(size)+0.5).x;
	VERTEX.y += height * height_scale;
	NORMAL = VERTEX; //Lighting fix
	//COLOR = vec4(0.1, 0.5, 0.5,0.0);

}
void fragment()
{
	ALBEDO = vec3(0.05, 0.3, 0.3);
	ROUGHNESS = .8;
	SSS_STRENGTH=0.8;
}"
